[gd_resource type="FontVariation" load_steps=2 format=3 uid="uid://dhf581aqg77k2"]

[ext_resource type="FontFile" uid="uid://dgyn80jcu0rpm" path="res://assets/fonts/MaterialSymbols/MaterialSymbolsRounded[FILL,GRAD,opsz,wght].woff2" id="1_o3hot"]

[resource]
base_font = ExtResource("1_o3hot")
variation_opentype = {
1179208780: 1,
1196572996: null
}
